Introduction to healthdb
…
bind_source(result_list,
  # output_name = c(names in the list elements)
  src = "src",
  uid = "uid",
  clnt_id = "clnt_id",
  flag = c("flag_restrict_date", NA),
  # force_proceed is needed to collect remote tables to local memory
  force_proceed = TRUE
)
#> # A tibble: 100 × 5
#>    src_No src     uid clnt_id  flag
#>     <int> <chr> <int>   <int> <int>
#>  1      1 claim    37       1     0
#>  2      1 claim    46       2     0
#>  3      1 claim    16       4     1
#>  4      1 claim     7       4     1
#>  5      1 claim     6       4     0
#>  6      1 claim    33       6     0
#>  7      1 claim    12       8     0
#>  8      1 claim    19       8     1
#>  9      1 claim     8       8     0
#> 10      1 claim    10       9     0
#> # ℹ 90 more rows

pool_case() goes a few steps further than row bind. It
also filters records with valid flags and can summarize by client/group.
Since we had to decide which variables to be summarized in advance, the
output may not be flexible enough to meet your needs.

pool_case(result_list,
          def = sud_def,
          # your could skip summary with output_lvl = "raw"
          output_lvl = "clnt",
          # include records only from sources having valid records, see function documentation for more detail and other options
          include_src = "has_valid",
          force_proceed = TRUE)
#> # A tibble: 24 × 8
#>    def   clnt_id first_valid_date last_entry_date raw_in_claim raw_in_hosp
#>    <chr>   <int>            <dbl>           <dbl>        <dbl>       <dbl>
#>  1 SUD         1            17274           18557            0           4
#>  2 SUD         2            17306           17306            0           1
#>  3 SUD         3            16942           17611            0           2
#>  4 SUD         4            17204           18024            3           1
#>  5 SUD         6            17532           17532            0           1
#>  6 SUD         7            17465           18334            0           2
#>  7 SUD         8            17791           18127            3           1
#>  8 SUD        11            17475           17979            0           2
#>  9 SUD        13            16901           16901            0           1
#> 10 SUD        14            17106           17615            0           2
#> # ℹ 14 more rows
#> # ℹ 2 more variables: valid_in_claim <int>, valid_in_hosp <int>
